Smart Education Platform - Project Handover Document
Project Overview
We've built a multi-tenant education CRM platform with a modular architecture. The system consists of a PostgreSQL database, FastAPI backend, and React frontend.
Current Status ✅
1. Database (PostgreSQL)

Location: Local PostgreSQL installation
Database Name: smart_education
User: smart_admin
Password: smart_2024_secure!
Schema: Fully created with 30+ tables
Test Data: Loaded with comprehensive test data including:

5 schools (customers)
14 parents with various statuses
13 children
Emails, journey events, tasks, notes, etc.



2. Backend (FastAPI + Python)

Location: /Users/robertottley/Desktop/Smart APP/backend
Port: 8000
Status: Running and functional
Endpoints Available:

GET /api/parents/stats - Parent statistics
GET /api/parents/search - Search/filter parents
GET /api/parents/{id} - Get parent details
POST /api/parents - Create parent
PUT /api/parents/{id} - Update parent
POST /api/parents/{id}/children - Add child
POST /api/parents/{id}/notes - Add note


API Docs: http://localhost:8000/docs

3. Frontend (React + Vite)

Location: /Users/robertottley/Desktop/Smart APP/frontend
Port: 3000
Status: Running and functional
URL: http://localhost:3000/parents
Modules Implemented:

✅ Parents CRM (fully functional)
🔲 Inbox (placeholder)
🔲 Smart Reply (placeholder)
🔲 Analytics (placeholder)
🔲 Knowledge Base (placeholder)
🔲 Events (placeholder)



How to Run the Project
Start the Backend:
bashcd "/Users/robertottley/Desktop/Smart APP/backend"
source venv/bin/activate
PYTHONPATH=. python app.py
Start the Frontend:
bashcd "/Users/robertottley/Desktop/Smart APP/frontend"
npm run dev
Then visit: http://localhost:3000/parents
Project Structure
Smart APP/
├── backend/
│   ├── api/
│   │   ├── core/
│   │   │   └── database.py
│   │   └── modules/
│   │       └── parents/
│   │           ├── models.py
│   │           ├── routes.py
│   │           └── schemas.py
│   ├── app.py
│   ├── requirements.txt
│   └── .env
└── frontend/
    ├── src/
    │   ├── components/
    │   │   └── Layout.jsx
    │   ├── modules/
    │   │   ├── parents/
    │   │   │   ├── ParentsModule.jsx
    │   │   │   └── components/
    │   │   │       ├── ParentsList.jsx
    │   │   │       ├── ParentCard.jsx
    │   │   │       ├── ParentDetail.jsx
    │   │   │       └── StatsCard.jsx
    │   │   ├── inbox/
    │   │   └── smart-reply/
    │   ├── services/
    │   │   └── api.js
    │   ├── store/
    │   │   └── parentStore.js
    │   ├── App.jsx
    │   ├── main.jsx
    │   └── index.css
    ├── package.json
    └── vite.config.js
What's Working

Parent Management:

View all parents with pagination
Search by name, email, phone
Filter by status (lead, warm, applicant, etc.)
View detailed parent information
Add notes to parents
View children information
See email history and journey events


API Integration:

Full CRUD operations
Real-time data from PostgreSQL
Proper error handling
State management with Zustand



Next Steps to Implement
1. Authentication System

Add JWT authentication to the backend
Create login/logout functionality
Implement role-based access control
Add user session management

2. Inbox Module

Create email inbox interface
Implement email threading
Add email composition
Smart email categorization

3. Smart Reply Module

Integrate the existing smart_reply.py functionality
Create UI for AI-powered responses
Add template management
Implement response customization

4. Knowledge Base Module

Create KB article management
Implement search functionality
Add categorization
Create approval workflow

5. Analytics Module

Build dashboard with charts
Implement conversion funnel
Add engagement metrics
Create custom reports

6. Events Module

Event creation and management
Registration handling
Calendar integration
Automated reminders

Important Notes

Database Connection: The database contains all the test data and is fully functional
API Routes: All parent-related endpoints are working and tested
Frontend Routing: The app starts at /parents not at root /
Module Structure: Each module is self-contained for easy development
Styling: Using Tailwind CSS with custom brand colors defined

Known Issues

PostCSS warning in terminal (harmless, can be ignored)
Root route (/) redirects to /parents

Environment Variables
Both .env files are configured:

Backend: Database connection and API settings
Frontend: API proxy configured to backend

Test Credentials

Customer ID: SCHOOL-001 (St. Mary's Academy)
User ID: USER-001 (for adding notes)

This completes the handover. The foundation is solid with the Parents module fully functional. The next developer can use this as a template to build the remaining modules.

# Parents Module API Endpoints

## Base URL: /api/v1/parents

### Parent Management

#### List Parents
```
GET /parents
Query Parameters:
  - page: int (default: 1)
  - per_page: int (default: 20)
  - q: string (search query)
  - status: string (comma-separated values)
  - stage: string
  - source: string
  - lead_score_min: int
  - lead_score_max: int
  - engagement_min: int
  - engagement_max: int
  - date_from: date
  - date_to: date
  - has_children: boolean
  - tags: string (comma-separated)
  - sort_by: string (default: created_at)
  - sort_order: string (asc/desc, default: desc)

Response:
{
  "items": [...],
  "page": 1,
  "pages": 10,
  "total": 200,
  "per_page": 20
}
```

#### Get Parent Details
```
GET /parents/{id}
Response: Parent object with full details
```

#### Create Parent
```
POST /parents
Body: {
  "name": "string",
  "email": "string",
  "phone": "string",
  "status": "string",
  "stage": "string",
  "source": "string",
  "tags": ["string"]
}
```

#### Update Parent
```
PATCH /parents/{id}
Body: Partial parent object
```

#### Delete Parent
```
DELETE /parents/{id}
```

### Parent Statistics
```
GET /parents/stats
Response: {
  "total_parents": 150,
  "recent_enquiries_7d": 15,
  "recent_enquiries_30d": 45,
  "conversion_rate": 23.5,
  "high_risk_count": 8,
  "by_status": {...},
  "by_stage": {...}
}
```

### Children Management

#### List Children for Parent
```
GET /parents/{parent_id}/children
```

#### Add Child
```
POST /parents/{parent_id}/children
Body: {
  "name": "string",
  "current_year_group": "string",
  "target_year_group": "string",
  "interests": "string",
  "notes": "string"
}
```

#### Update Child
```
PATCH /children/{id}
Body: Partial child object
```

#### Delete Child
```
DELETE /children/{id}
```

### Notes Management

#### List Notes
```
GET /parents/{parent_id}/notes
Query Parameters:
  - limit: int (default: 10)
  - offset: int (default: 0)
```

#### Add Note
```
POST /parents/{parent_id}/notes
Body: {
  "content": "string"
}
```

#### Update Note
```
PATCH /notes/{id}
Body: {
  "content": "string"
}
```

#### Delete Note
```
DELETE /notes/{id}
```

### Task Management

#### List Tasks
```
GET /parents/{parent_id}/tasks
Query Parameters:
  - status: string (pending/completed)
```

#### Create Task
```
POST /parents/{parent_id}/tasks
Body: {
  "title": "string",
  "description": "string",
  "due_date": "date",
  "priority": "string"
}
```

#### Update Task
```
PATCH /tasks/{id}
Body: Partial task object
```

#### Delete Task
```
DELETE /tasks/{id}
```

### Email Management

#### List Emails
```
GET /parents/{parent_id}/emails
Query Parameters:
  - limit: int (default: 10)
  - offset: int (default: 0)
  - direction: string (inbound/outbound)
```

#### Get Email Details
```
GET /emails/{id}
Response: Full email with body
```

#### Send Email
```
POST /parents/{parent_id}/emails
Body: {
  "subject": "string",
  "body": "string",
  "template_id": "string (optional)"
}
```

### Journey Events

#### Get Journey Timeline
```
GET /parents/{parent_id}/journey
Response: {
  "items": [
    {
      "id": "string",
      "type": "email|note|status_change|task|meeting",
      "title": "string",
      "description": "string",
      "created_at": "datetime",
      "metadata": {}
    }
  ]
}
```

### Bulk Operations

#### Bulk Update Status
```
POST /parents/bulk/status
Body: {
  "parent_ids": ["id1", "id2"],
  "status": "string"
}
```

#### Bulk Add Tag
```
POST /parents/bulk/tags
Body: {
  "parent_ids": ["id1", "id2"],
  "tag": "string"
}
```

#### Bulk Delete
```
POST /parents/bulk/delete
Body: {
  "parent_ids": ["id1", "id2"]
}
```

### Import/Export

#### Export Parents
```
GET /parents/export
Query Parameters:
  - parent_ids: string (comma-separated, optional)
  - format: string (csv/xlsx, default: csv)
Response: File download
```

#### Import Parents
```
POST /parents/import
Body: multipart/form-data with CSV/XLSX file
Response: {
  "imported": 50,
  "failed": 2,
  "errors": [...]
}
```

### Additional Features

#### Merge Duplicates
```
POST /parents/merge
Body: {
  "primary_id": "string",
  "duplicate_ids": ["string"]
}
```

#### Generate Report
```
GET /parents/report
Query Parameters:
  - type: string (summary/detailed)
  - date_from: date
  - date_to: date
Response: PDF/Excel report
```

## FastAPI Implementation Example

```python
from fastapi import APIRouter, Query, HTTPException, Depends
from typing import Optional, List
from datetime import date

router = APIRouter(prefix="/api/v1/parents", tags=["parents"])

@router.get("/")
async def list_parents(
    page: int = Query(1, ge=1),
    per_page: int = Query(20, ge=1, le=100),
    q: Optional[str] = None,
    status: Optional[str] = None,
    stage: Optional[str] = None,
    lead_score_min: Optional[int] = Query(None, ge=0, le=100),
    lead_score_max: Optional[int] = Query(None, ge=0, le=100),
    sort_by: str = Query("created_at", regex="^(created_at|name|lead_score|engagement_score)$"),
    sort_order: str = Query("desc", regex="^(asc|desc)$"),
    current_user: User = Depends(get_current_user)
):
    # Implementation
    pass

@router.patch("/{parent_id}")
async def update_parent(
    parent_id: str,
    updates: ParentUpdate,
    current_user: User = Depends(get_current_user)
):
    # Implementation
    pass

# Add all other endpoints...
```